filter,command,1,2,3,4,5,6,7,8,9,10,11,12,13,14
0,$build,CID,UID,,Firmware,-,,,,,,,,,
,$statr,CID,UID,,Band,Voltage,Temperature,,Fault,,,,,,
,$setdar,CID,UID,,,DSA,,,,,,,,,
1,$buildr,CID,UID,,Firmware_Ver,-,-,-,,,,,,,
,$statr,CID,UID,,Uptime,,System_Status,Fault_Status,,,,Voltage,,Temperature,
,$mutedar,CID,UID,,,DSA,,,,,,,,,
,$setdar,CID,UID,,,DSA,,,,,,,,,
,$setipr,CID,UID,,DHCP_Retries,Static_IP,Static_Gateway,Static_Subnet,,,,,,,
,$ipcf,CID,UID,IP,Subnet,Gateway,MAC,,,,,,,,
,$ack,,CID,UID,,,,,,,,,,,
,$time,CID,UID,UNIXTS,YYYYMMDD,HHMMSS,UTCOFFSET,,,,,,,,
,$setthr,CID,UID,,Current_High,Current_Low,Temperature_High,Temperature_Low,Voltage_High,Voltage_Low,Stack_L,CPU_H,,,
,$setanr,CID,UID,,LLDP_Enable,LLDP_Timer,,,,,,,,,
,$hostr,CID,UID,,Hostname,,,,,,,,,,
,$mmr,,Mfg,Model,Hardware_Ver,Hostname,,,,,,,,,
,$getlogr,CID,UID,,,,,,,Stack_WM,CPU,CPU_WM,,,
2,$buildr,CID,UID,,Firmware,-,-,-,,,,,,,
,$statr,CID,UID,,Uptime,,System_Status,Fault_Status,,,,Voltage,,Temperature,Band
,$setdar,CID,UID,,,DSA,,,,,,,,,
,$setipr,CID,UID,,DHCP_Retries,Static_IP,Static_Gateway,Static_Subnet,,,,,,,
,$ipcf,CID,UID,IP,Subnet,Gateway,MAC,,,,,,,,
,$ack,,CID,UID,,,,,,,,,,,
,$time,CID,UID,UNIXTS,YYYYMMDD,HHMMSS,UTCOFFSET,,,,,,,,
,$setthr,CID,UID,,Current_High,Current_Low,Temperature_High,Temperature_Low,Voltage_High,Voltage_Low,,,,,
