name,IP,serial,DSA,filter,bands,band_DSA_offset,band_display_offset,band_name,Voltage,Current,Temperature,Uptime,Temperature_High,Temperature_Low,Voltage_High,Voltage_Low,Current_High,Current_Low,Stack_L,CPU_H,Mute,info,log
LNBKAMM-XIWS60A,FALSE,1,1,0,3,TRUE,FALSE,,TRUE,FALSE,TRUE,FALSE,FALSE,FALSE,FALSE,FALSE,FALSE,FALSE,FALSE,FALSE,FALSE,FALSE,FALSE
LNBKAMS-XIWN60A,FALSE,1,1,0,2,TRUE,FALSE,,TRUE,FALSE,TRUE,FALSE,FALSE,FALSE,FALSE,FALSE,FALSE,FALSE,FALSE,FALSE,FALSE,FALSE,FALSE
LNB858-900XWS60,TRUE,2,2,1,FALSE,FALSE,FALSE,,TRUE,FALSE,TRUE,TRUE,TRUE,TRUE,TRUE,TRUE,TRUE,TRUE,TRUE,TRUE,TRUE,TRUE,TRUE
LNBKAME-XIWN60L,FALSE,1,2,2,4,FALSE,FALSE,"17.60,18.25,19.25,16.75",TRUE,FALSE,TRUE,TRUE,TRUE,TRUE,TRUE,TRUE,TRUE,TRUE,FALSE,FALSE,FALSE,FALSE,FALSE
LNBKAWE-XWN60K-NDR,TRUE,2,2,2,5,FALSE,TRUE,"16.25,17.25,18.25,19.25,20.25",TRUE,FALSE,TRUE,TRUE,TRUE,TRUE,TRUE,TRUE,TRUE,TRUE,FALSE,FALSE,FALSE,FALSE,FALSE
LNBKAWM-XWS60M-MAR,FALSE,2,2,2,4,FALSE,TRUE,"18.75,19.25,19.75,19.25",TRUE,FALSE,TRUE,TRUE,TRUE,TRUE,TRUE,TRUE,TRUE,TRUE,FALSE,FALSE,FALSE,FALSE,FALSE
