name,IP,serial,DSA,filter,bands,band_DSA_offset,band_display_offset,band_name,Voltage,Current,Temperature,Uptime,Thresholds,Mute,Info,Log,LLDP,discovery
LNBKAMM-XIWS60A,FALSE,RS485,1,0,3,TRUE,FALSE,,TRUE,FALSE,TRUE,FALSE,FALSE,FALSE,FALSE,FALSE,FALSE,FALSE
LNBKAMS-XIWN60A,FALSE,RS485,1,0,2,TRUE,FALSE,,TRUE,FALSE,TRUE,FALSE,FALSE,FALSE,FALSE,FALSE,FALSE,FALSE
LNB858-900XWS60,TRUE,FALSE,2,1,FALSE,FALSE,FALSE,,TRUE,FALSE,TRUE,TRUE,TRUE,TRUE,TRUE,TRUE,TRUE,FALSE
LNBKAME-XIWN60L,FALSE,RS485,2,2,4,FALSE,FALSE,"17.60,18.25,19.25,16.75",TRUE,FALSE,TRUE,TRUE,TRUE,FALSE,FALSE,FALSE,FALSE,FALSE
LNBKAWE-XWN60K-NDR,TRUE,FALSE,2,2,5,FALSE,TRUE,"16.25,17.25,18.25,19.25,20.25",TRUE,FALSE,TRUE,TRUE,TRUE,FALSE,FALSE,FALSE,FALSE,FALSE
LNBKAWM-XWS60M-MAR,FALSE,RS232,2,2,4,FALSE,TRUE,"18.75,19.25,19.75,19.25",TRUE,FALSE,TRUE,TRUE,TRUE,FALSE,FALSE,FALSE,FALSE,FALSE
DEMO,TRUE,RS232,2,2,4,FALSE,TRUE,,TRUE,FALSE,TRUE,TRUE,TRUE,FALSE,FALSE,FALSE,FALSE,FALSE
Discovery,TRUE,RS232,2,1,FALSE,FALSE,FALSE,,TRUE,TRUE,TRUE,TRUE,TRUE,TRUE,TRUE,TRUE,TRUE,TRUE
